…
Calculate mass-to-charge ratios of proteoform ions in charge states 33+
to 40+

``` r
pfm_ions <-
  proteoforms %>%
  calculate_proteoform_masses("C6464 H9950 N1706 O2014 S44") %>% 
  ionize(charge_states = 33L:40L)

pfm_ions
#> # A tibble: 48 x 9
#>    name      Hex HexNAc   Fuc    mass     z    mz mz_min mz_max
#>    <chr>   <dbl>  <dbl> <dbl>   <dbl> <int> <dbl>  <dbl>  <dbl>
#>  1 G0F/G0      6      8     1 147942.    33 4484.  4483.  4485.
#>  2 G0F/G0      6      8     1 147942.    34 4352.  4351.  4353.
#>  3 G0F/G0      6      8     1 147942.    35 4228.  4227.  4229.
#>  4 G0F/G0      6      8     1 147942.    36 4111.  4110.  4111.
#>  5 G0F/G0      6      8     1 147942.    37 3999.  3999.  4000.
#>  6 G0F/G0      6      8     1 147942.    38 3894.  3893.  3895.
#>  7 G0F/G0      6      8     1 147942.    39 3794.  3794.  3795.
#>  8 G0F/G0      6      8     1 147942.    40 3700.  3699.  3700.
#>  9 G0F/G0F     6      8     2 148088.    33 4489.  4488.  4489.
#> 10 G0F/G0F     6      8     2 148088.    34 4357.  4356.  4357.
#> # … with 38 more rows
```
…
abundances
#> ℹ Abundances of 48 ions quantified in 352 mass spectra using 1
#>   retention time window by `fragquaxi::quantify_ions()`.
#> 
#> ── Parameters ────────────────────────────────────────────────────────────────────────────────────────────────────────
#> ● MS data file: /home/wolfgang/Programme/R/3.6/fragquaxi/extdata/mzml/mab1.mzML
#> ● Ions:
#>   # A tibble: 48 x 10
#>   ion_id name     Hex HexNAc   Fuc    mass     z    mz mz_min mz_max
#>   <chr>  <chr>  <dbl>  <dbl> <dbl>   <dbl> <int> <dbl>  <dbl>  <dbl>
#> 1 id_1   G0F/G0     6      8     1 147942.    33 4484.  4483.  4485.
#> 2 id_2   G0F/G0     6      8     1 147942.    34 4352.  4351.  4353.
#> 3 id_3   G0F/G0     6      8     1 147942.    35 4228.  4227.  4229.
#> 4 id_4   G0F/G0     6      8     1 147942.    36 4111.  4110.  4111.
#> 5 id_5   G0F/G0     6      8     1 147942.    37 3999.  3999.  4000.
#> # … with 43 more rows
…
