Glycoform Quantification via XIC Integration • fragquaxi
…
Assemble proteoforms and calculate mass-to-charge ratios of proteoform ions in charge states 33+ to 40+

pfm_ions <-
  assemble_proteoforms(proteins, modcoms) %>%
  ionize(charge_states = 33L:40L)

pfm_ions
#> # A tibble: 48 x 8
#>    protein_name modcom_name formula                        mass     z    mz
#>    <chr>        <chr>       <mol>                         <dbl> <int> <dbl>
#>  1 mab          G0F/G0      C6570 H10124 N1714 O2088 S44 1.48e5    33 4484.
#>  2 mab          G0F/G0      C6570 H10124 N1714 O2088 S44 1.48e5    34 4352.
#>  3 mab          G0F/G0      C6570 H10124 N1714 O2088 S44 1.48e5    35 4228.
#>  4 mab          G0F/G0      C6570 H10124 N1714 O2088 S44 1.48e5    36 4111.
#>  5 mab          G0F/G0      C6570 H10124 N1714 O2088 S44 1.48e5    37 3999.
#>  6 mab          G0F/G0      C6570 H10124 N1714 O2088 S44 1.48e5    38 3894.
#>  7 mab          G0F/G0      C6570 H10124 N1714 O2088 S44 1.48e5    39 3794.
#>  8 mab          G0F/G0      C6570 H10124 N1714 O2088 S44 1.48e5    40 3700.
#>  9 mab          G0F/G0F     C6576 H10134 N1714 O2092 S44 1.48e5    33 4489.
#> 10 mab          G0F/G0F     C6576 H10134 N1714 O2092 S44 1.48e5    34 4357.
#> # … with 38 more rows, and 2 more variables: mz_min <dbl>, mz_max <dbl>
…
abundances <- quantify_ions(
  ms_data,
  pfm_ions,
  rt_limits = c(300, 350)
)

abundances
#> ℹ Abundances of 48 ions quantified in 352 mass spectra using 1 retention time window.
#> 
#> ── Parameters ──
#> 
#> MS data file: /home/wolfgang/Programme/R/3.6/fragquaxi/extdata/mzml/mab1.mzML
#> 
#> Ions:
#> # A tibble: 48 x 9
#>   ion_id protein_name modcom_name formula                        mass     z
#>   <chr>  <chr>        <chr>       <mol>                         <dbl> <int>
#> 1 id_1   mab          G0F/G0      C6570 H10124 N1714 O2088 S44 1.48e5    33
#> 2 id_2   mab          G0F/G0      C6570 H10124 N1714 O2088 S44 1.48e5    34
#> 3 id_3   mab          G0F/G0      C6570 H10124 N1714 O2088 S44 1.48e5    35
#> 4 id_4   mab          G0F/G0      C6570 H10124 N1714 O2088 S44 1.48e5    36
#> 5 id_5   mab          G0F/G0      C6570 H10124 N1714 O2088 S44 1.48e5    37
#> # … with 43 more rows, and 3 more variables: mz <dbl>, mz_min <dbl>,
#> #   mz_max <dbl>
…
