Introduction to fragquaxi • fragquaxi
…
get_mass() calculates the molecular mass of a formula:

molecular_formula("C6 H10 O5") %>% get_mass()
#> [1] 162.141

By default, get_mass() uses average atomic masses. However, the package also provides monoisotopic masses:

molecular_formula("C6 H10 O5") %>% get_mass(mass_set = "monoisotopic")
#> [1] 167.0528

The dataset atomic_masses provides these average and monoisotopic masses:

atomic_masses
#> # A tibble: 118 x 6
#>    element name          Z average     A monoisotopic
#>    <chr>   <chr>     <int>   <dbl> <int>        <dbl>
#>  1 H       hydrogen      1    1.01     1         1.01
#>  2 He      helium        2    4.00     4         4.00
#>  3 Li      lithium       3    6.94     7         7.02
#>  4 Be      beryllium     4    9.01     9         9.01
#>  5 B       boron         5   10.8     11        11.0 
#>  6 C       carbon        6   12.0     12        12   
#>  7 N       nitrogen      7   14.0     14        14.0 
#>  8 O       oxygen        8   16.0     16        17.0 
#>  9 F       fluorine      9   19.0     19        20.0 
#> 10 Ne      neon         10   20.2     20        21.0 
#> # … with 108 more rows
…
In this data frame, each row corresponds to a single proteoform. The first column must be labeled name and should contain a short, informative description. All subsequent columns must be labeled by valid PTM names (see below) and contain the number of the respective PTM found in the respective proteoform.

The data frame above describes a range of proteoforms that differ in N-glycosylation, phosphorylation (PHOS) and “fooylation” (foo). Glycosylation is described in terms of the overall monosaccharide composition of the N-glycans; consequently, the data frame includes the columns Hex, HexNAc, and Fuc to indicate the number of hexose, N-acetylhexosamine, and fucose residues, respectively.

Valid PTM names include

monosaccharides as provided in the data set monosaccharides:

monosaccharides
#> # A tibble: 83 x 5
#>    abbreviation type      formula   short_name     systematic_name              
#>    <chr>        <chr>     <chr>     <chr>          <chr>                        
#>  1 4eLeg        Di-deoxy… C9 H16 N… 4-Epilegionam… 5,7-Diamino-3,5,7,9-tetradeo…
#>  2 6dAlt        Deoxyhex… C6 H10 O4 6-Deoxy-L-alt… 6-Deoxy-L-altropyranose      
#>  3 6dAltNAc     Deoxyhex… C8 H13 N… N-Acetyl-6-de… 2-Acetamido-2,6-dideoxy-L-al…
#>  4 6dGul        Deoxyhex… C6 H10 O4 6-Deoxy-D-gul… 6-Deoxy-D-gulopyranose       
#>  5 6dTal        Deoxyhex… C6 H10 O4 6-Deoxy-D-tal… 6-Deoxy-D-talopyranose       
#>  6 6dTalNAc     Deoxyhex… C8 H13 N… N-Acetyl-6-de… 2-Acetamido-2,6-dideoxy-D-ta…
#>  7 Abe          Di-deoxy… C6 H10 O3 Abequose       3,6-Dideoxy-D-xylo-hexopyran…
#>  8 Aci          Di-deoxy… C9 H16 N… Acinetaminic … 5,7-Diamino-3,5,7,9-tetradeo…
#>  9 All          Hexose    C6 H10 O5 D-Allose       D-Allopyranose               
#> 10 AllA         Hexurona… C5 H8 O6  D-Alluronic a… D-Allopyranuronic acid       
#> # … with 73 more rows

PTMs as provided in the data set ptms:

ptms
#> # A tibble: 72 x 3
#>    abbreviation name                     formula          
#>    <chr>        <chr>                    <chr>            
#>  1 ACET         Acetylation              C2 H2 O          
#>  2 ADP          ADP-ribosylation         C15 H21 N5 O13 P2
#>  3 ALLYS        Allysine                 H-3 N-1 O        
#>  4 AMID         Amidation                H N O-1          
#>  5 ARCH         S-archaeol               C43 H86 O2       
#>  6 BMTH         Beta-methylthiolation    C H2 S           
#>  7 BIOT         Biotin                   C10 H14 N2 O2 S  
#>  8 BROM         Bromination              Br H-1           
#>  9 CETH         N6-1-carboxyethyl lysine C3 H4 O2         
#> 10 CHOL         Cholesterol              C27 H44          
#> # … with 62 more rows
…
Finally, ionize() calculates mass-to-charge ratios of these proteoforms in selected charge_states.

pfm_ions <-
  pfm_masses %>%
  ionize(charge_states = 33L:40L)

pfm_ions
#> # A tibble: 64 x 11
#>    name      Hex HexNAc   Fuc  PHOS   foo    mass     z    mz mz_min mz_max
#>    <chr>   <dbl>  <dbl> <dbl> <dbl> <dbl>   <dbl> <int> <dbl>  <dbl>  <dbl>
#>  1 G0F/G0      6      8     1     0     0 147942.    33 4484.  4483.  4485.
#>  2 G0F/G0      6      8     1     0     0 147942.    34 4352.  4351.  4353.
#>  3 G0F/G0      6      8     1     0     0 147942.    35 4228.  4227.  4229.
#>  4 G0F/G0      6      8     1     0     0 147942.    36 4111.  4110.  4111.
#>  5 G0F/G0      6      8     1     0     0 147942.    37 3999.  3999.  4000.
#>  6 G0F/G0      6      8     1     0     0 147942.    38 3894.  3893.  3895.
#>  7 G0F/G0      6      8     1     0     0 147942.    39 3794.  3794.  3795.
#>  8 G0F/G0      6      8     1     0     0 147942.    40 3700.  3699.  3700.
#>  9 G0F/G0F     6      8     2     0     0 148088.    33 4489.  4488.  4489.
#> 10 G0F/G0F     6      8     2     0     0 148088.    34 4357.  4356.  4357.
#> # … with 54 more rows
…
(rt_limits also allows to specify several retention time windows, as described in the documentation.)

Printing the quantification results stored in abundances yields a concise summary:

abundances
#> ℹ Abundances of 64 ions quantified in 352 mass spectra using 1 retention time window.
#> 
#> ── Parameters ──
#> 
#> MS data file: /tmp/RtmprYa8wJ/temp_libpath337c325ca21d/fragquaxi/extdata/mzml/mab1.mzML
#> 
#> Ions:
#> # A tibble: 64 x 12
#>   ion_id name     Hex HexNAc   Fuc  PHOS   foo    mass     z    mz mz_min mz_max
#>   <chr>  <chr>  <dbl>  <dbl> <dbl> <dbl> <dbl>   <dbl> <int> <dbl>  <dbl>  <dbl>
#> 1 id_1   G0F/G0     6      8     1     0     0 147942.    33 4484.  4483.  4485.
#> 2 id_2   G0F/G0     6      8     1     0     0 147942.    34 4352.  4351.  4353.
#> 3 id_3   G0F/G0     6      8     1     0     0 147942.    35 4228.  4227.  4229.
#> 4 id_4   G0F/G0     6      8     1     0     0 147942.    36 4111.  4110.  4111.
#> 5 id_5   G0F/G0     6      8     1     0     0 147942.    37 3999.  3999.  4000.
#> # … with 59 more rows
…
For data analysis, it may be convenient to convert these results to a data frame:

as_tibble(abundances)
#> # A tibble: 64 x 13
#>    name    Hex HexNAc   Fuc  PHOS   foo   mass     z    mz mz_min mz_max
#>    <chr> <dbl>  <dbl> <dbl> <dbl> <dbl>  <dbl> <int> <dbl>  <dbl>  <dbl>
#>  1 G0F/…     6      8     1     0     0 1.48e5    33 4484.  4483.  4485.
#>  2 G0F/…     6      8     1     0     0 1.48e5    34 4352.  4351.  4353.
#>  3 G0F/…     6      8     1     0     0 1.48e5    35 4228.  4227.  4229.
#>  4 G0F/…     6      8     1     0     0 1.48e5    36 4111.  4110.  4111.
#>  5 G0F/…     6      8     1     0     0 1.48e5    37 3999.  3999.  4000.
#>  6 G0F/…     6      8     1     0     0 1.48e5    38 3894.  3893.  3895.
#>  7 G0F/…     6      8     1     0     0 1.48e5    39 3794.  3794.  3795.
#>  8 G0F/…     6      8     1     0     0 1.48e5    40 3700.  3699.  3700.
#>  9 G0F/…     6      8     2     0     0 1.48e5    33 4489.  4488.  4489.
#> 10 G0F/…     6      8     2     0     0 1.48e5    34 4357.  4356.  4357.
#> # … with 54 more rows, and 2 more variables: abundance_data <list>,
#> #   xic_data <list>

This conversion returns the data frame describing proteoform ions, plus two additional nested columns abundance_data and xic_data.

The column abundance_data stores data on ion abundances. Each value is a tibble with one row per retention time window (given by the values in columns rt_min and rt_max); column abundance contains corresponding XIC area.

abundances %>%
  as_tibble() %>%
  select(name, z, abundance_data) %>% 
  unnest(abundance_data)
#> # A tibble: 64 x 7
#>    name        z rt_min rt_max scan_min scan_max abundance
#>    <chr>   <int>  <dbl>  <dbl>    <int>    <int>     <dbl>
#>  1 G0F/G0     33    300    350      117      141   153744.
#>  2 G0F/G0     34    300    350      117      141   204512.
#>  3 G0F/G0     35    300    350      117      141   256930.
#>  4 G0F/G0     36    300    350      117      141   334421.
#>  5 G0F/G0     37    300    350      117      141   183758.
#>  6 G0F/G0     38    300    350      117      141   177475.
#>  7 G0F/G0     39    300    350      117      141   121394.
#>  8 G0F/G0     40    300    350      117      141   114270.
#>  9 G0F/G0F    33    300    350      117      141  2903791.
#> 10 G0F/G0F    34    300    350      117      141  4762999.
#> # … with 54 more rows
…
The column xic_data stores retention times (column rt) and intensities (column int) of the XIC associated with the respective ion:

abundances %>%
  as_tibble() %>%
  select(name, z, xic_data) %>% 
  unnest(xic_data)
#> # A tibble: 22,528 x 5
#>    name       z  scan    rt   int
#>    <chr>  <int> <int> <dbl> <dbl>
#>  1 G0F/G0    33     1  2.58     0
#>  2 G0F/G0    33     2  5.20     0
#>  3 G0F/G0    33     3  7.81     0
#>  4 G0F/G0    33     4 10.4      0
#>  5 G0F/G0    33     5 13.0      0
#>  6 G0F/G0    33     6 15.6      0
#>  7 G0F/G0    33     7 18.3      0
#>  8 G0F/G0    33     8 20.9      0
#>  9 G0F/G0    33     9 23.5      0
#> 10 G0F/G0    33    10 26.1      0
#> # … with 22,518 more rows
…
all_abundances
#> # A tibble: 24 x 3
#>    sample name        abundance
#>    <chr>  <chr>           <dbl>
#>  1 1      G0F/G0          2.56 
#>  2 1      G0F/G0F        57.8  
#>  3 1      G0F/G1F        23.4  
#>  4 1      G1F/G1F        10.5  
#>  5 1      G1F/G2F         4.07 
#>  6 1      G2F/G2F         1.41 
#>  7 1      G2F/G2F+foo     0.100
#>  8 1      G2F/G2F+P       0.115
#>  9 2      G0F/G0          2.00 
#> 10 2      G0F/G0F        57.6  
#> # … with 14 more rows
…
(Note how the plot returned by plot_ions() may be further customized via the usual ggplot2 syntax – here, a facet specification is included.)

Following quantification, obtain XIC data and filter for the last scan number:

di_abundances <- 
  di_data %>%
  quantify_ions(di_proteoforms) %>% 
  as_tibble(abundance_col = NULL) %>% 
  unnest(xic_data) %>%
  filter(scan == max(scan))

di_abundances
#> # A tibble: 49 x 12
#>      Hex HexNAc   Fuc name     mass     z    mz mz_min mz_max  scan    rt    int
#>    <dbl>  <dbl> <dbl> <chr>   <dbl> <int> <dbl>  <dbl>  <dbl> <int> <dbl>  <dbl>
#>  1     6      7     2 A1G0F… 1.48e5    24 6161.  6160.  6162.   105  293.   281.
#>  2     6      7     2 A1G0F… 1.48e5    25 5914.  5913.  5916.   105  293.  1571.
#>  3     6      7     2 A1G0F… 1.48e5    26 5687.  5686.  5688.   105  293.  2304.
#>  4     6      7     2 A1G0F… 1.48e5    27 5476.  5475.  5477.   105  293.  2043.
#>  5     6      7     2 A1G0F… 1.48e5    28 5281.  5280.  5282.   105  293.  1205.
#>  6     6      7     2 A1G0F… 1.48e5    29 5099.  5098.  5100.   105  293.   621.
#>  7     6      7     2 A1G0F… 1.48e5    30 4929.  4928.  4930.   105  293.     0 
#>  8     6      8     2 A2G0F… 1.48e5    24 6169.  6168.  6171.   105  293.  3684.
#>  9     6      8     2 A2G0F… 1.48e5    25 5923.  5921.  5924.   105  293. 16880.
#> 10     6      8     2 A2G0F… 1.48e5    26 5695.  5694.  5696.   105  293. 27466.
#> # … with 39 more rows
…
