Quantify proteoform ions — quantify_ions • fragquaxi
…
# no rentention time limits: use all spectra
quantify_ions(ms_data, pfm_ions)

#> ℹ Abundances of 30 ions quantified in 352 mass spectra using 1 retention time window.
#> 
#> ── Parameters ──
#> 
#> MS data file:
#> /tmp/RtmpMZpe4N/temp_libpath126f21a1228f4/fragquaxi/extdata/mzml/mab1.mzML
#> 
#> Ions:
#> # A tibble: 30 x 9
#>   ion_id protein_name modcom_name formula                         mass     z
#>   <chr>         <int> <chr>       <mol>                          <dbl> <int>
#> 1 id_1              1 G0F/G0      C6570 H10124 N1714 O2088 S44 147942.    36
#> 2 id_2              1 G0F/G0      C6570 H10124 N1714 O2088 S44 147942.    37
#> 3 id_3              1 G0F/G0      C6570 H10124 N1714 O2088 S44 147942.    38
#> 4 id_4              1 G0F/G0      C6570 H10124 N1714 O2088 S44 147942.    39
#> 5 id_5              1 G0F/G0      C6570 H10124 N1714 O2088 S44 147942.    40
#> # … with 25 more rows, and 3 more variables: mz <dbl>, mz_min <dbl>,
#> #   mz_max <dbl>
…
# define a single retention time window
quantify_ions(ms_data, pfm_ions, rt_limits = c(240, 330))

#> ℹ Abundances of 30 ions quantified in 352 mass spectra using 1 retention time window.
#> 
#> ── Parameters ──
#> 
#> MS data file:
#> /tmp/RtmpMZpe4N/temp_libpath126f21a1228f4/fragquaxi/extdata/mzml/mab1.mzML
#> 
#> Ions:
#> # A tibble: 30 x 9
#>   ion_id protein_name modcom_name formula                         mass     z
#>   <chr>         <int> <chr>       <mol>                          <dbl> <int>
#> 1 id_1              1 G0F/G0      C6570 H10124 N1714 O2088 S44 147942.    36
#> 2 id_2              1 G0F/G0      C6570 H10124 N1714 O2088 S44 147942.    37
#> 3 id_3              1 G0F/G0      C6570 H10124 N1714 O2088 S44 147942.    38
#> 4 id_4              1 G0F/G0      C6570 H10124 N1714 O2088 S44 147942.    39
#> 5 id_5              1 G0F/G0      C6570 H10124 N1714 O2088 S44 147942.    40
#> # … with 25 more rows, and 3 more variables: mz <dbl>, mz_min <dbl>,
#> #   mz_max <dbl>
…
# define several retention time windows;
# instead of a list, you may also pass a data frame to rt_limits
quantify_ions(ms_data, pfm_ions,
              rt_limits = list(rt_min = c(0, 240), rt_max = c(60, 330)))

#> ℹ Abundances of 30 ions quantified in 352 mass spectra using 2 retention time windows.
#> 
#> ── Parameters ──
#> 
#> MS data file:
#> /tmp/RtmpMZpe4N/temp_libpath126f21a1228f4/fragquaxi/extdata/mzml/mab1.mzML
#> 
#> Ions:
#> # A tibble: 30 x 9
#>   ion_id protein_name modcom_name formula                         mass     z
#>   <chr>         <int> <chr>       <mol>                          <dbl> <int>
#> 1 id_1              1 G0F/G0      C6570 H10124 N1714 O2088 S44 147942.    36
#> 2 id_2              1 G0F/G0      C6570 H10124 N1714 O2088 S44 147942.    37
#> 3 id_3              1 G0F/G0      C6570 H10124 N1714 O2088 S44 147942.    38
#> 4 id_4              1 G0F/G0      C6570 H10124 N1714 O2088 S44 147942.    39
#> 5 id_5              1 G0F/G0      C6570 H10124 N1714 O2088 S44 147942.    40
#> # … with 25 more rows, and 3 more variables: mz <dbl>, mz_min <dbl>,
#> #   mz_max <dbl>
…
